{
  "coming": [
    {
      "id": 1217023,
      "img": "http://p0.meituan.net/170.230/movie/b5c913630f1fe53775d957b8f115ed5d929026.jpg",
      "wish": 584971,
      "wishst": 0,
      "nm": "唐人街探案3",
      "comingTitle": "2020年1月25日 周六"
    },
    {
      "id": 1211269,
      "img": "http://p0.meituan.net/170.230/moviemachine/2d4056b18bff5dfee1928db167cbb42890437.jpg",
      "wish": 174448,
      "wishst": 0,
      "nm": "姜子牙",
      "comingTitle": "2020年1月25日 周六"
    },
    {
      "id": 1190122,
      "img": "http://p0.meituan.net/170.230/movie/4bfb08bfe0b8dd20776c6efc4015de6d995158.jpg",
      "wish": 141413,
      "wishst": 0,
      "nm": "叶问4",
      "comingTitle": "12月20日 周五"
    },
    {
      "id": 461076,
      "img": "http://p0.meituan.net/170.230/moviemachine/7c0b961c49c2cc1a5d1ed4615beb8dbf6695755.jpg",
      "wish": 123026,
      "wishst": 0,
      "nm": "紧急救援",
      "comingTitle": "2020年1月25日 周六"
    },
    {
      "id": 247949,
      "img": "http://p0.meituan.net/170.230/moviemachine/58ee13be6dc60bf5e636cf915bbbaaa55787785.jpg",
      "wish": 107442,
      "wishst": 0,
      "nm": "冰雪奇缘2",
      "comingTitle": "11月22日 周五"
    },
    {
      "id": 1217041,
      "img": "http://p1.meituan.net/170.230/movie/6d1a970c7fefb016006b0af099d8ff38867262.jpg",
      "wish": 81301,
      "wishst": 0,
      "nm": "南方车站的聚会",
      "comingTitle": "12月6日 周五"
    },
    {
      "id": 246300,
      "img": "http://p1.meituan.net/170.230/movie/b9abe12e6bd785d29abef9c98518eec62044645.jpg",
      "wish": 78753,
      "wishst": 0,
      "nm": "一生有你2019",
      "comingTitle": "11月29日 周五"
    },
    {
      "id": 1250696,
      "img": "http://p1.meituan.net/170.230/movie/6573aca4bed234dc22d44a0f2d419ac9477072.jpg",
      "wish": 71724,
      "wishst": 0,
      "nm": "囧妈",
      "comingTitle": "2020年1月25日 周六"
    },
    {
      "id": 1250662,
      "img": "http://p0.meituan.net/170.230/movie/1cd7eccdeea4c443702b19bea0ba2ba52160055.jpg",
      "wish": 65933,
      "wishst": 0,
      "nm": "大约在冬季",
      "comingTitle": "11月15日 周五"
    },
    {
      "id": 1217123,
      "img": "http://p0.meituan.net/170.230/movie/7176eb3a1e76980ec711d2c8dc77dd52297157.jpg",
      "wish": 63650,
      "wishst": 0,
      "nm": "中国女排",
      "comingTitle": "2020年1月25日 周六"
    }
  ],
  "paging": {
    "hasMore": true,
    "limit": 10,
    "offset": 0,
    "total": 153
  }
}